{
  "name": "health-check-srv",
  "version": "v1",

	"ports": {
		"http": 8080,
		"rpc": 8081
	},

  "uploads": [
    "swagger.json"
  ],

  "config": {
    "databaseType": "mongo",
    "enableEventBus": true,

    "ingress": true,

    "deployment": {
      "minRAM": 25,
      "numInstances": 1,
      "numCPUs": 0.02
    }
  }
}
